<?xml version="1.0" standalone="no"?>
<!DOCTYPE svg PUBLIC "-//W3C//DTD SVG 20010904//EN"
 "http://www.w3.org/TR/2001/REC-SVG-20010904/DTD/svg10.dtd">
<svg version="1.0" xmlns="http://www.w3.org/2000/svg"
 width="512.000000pt" height="512.000000pt" viewBox="0 0 512.000000 512.000000"
 preserveAspectRatio="xMidYMid meet">
<metadata>
Created by potrace 1.11, written by Peter Selinger 2001-2013
</metadata>
<g transform="translate(0.000000,512.000000) scale(0.100000,-0.100000)"
fill="#000000" stroke="none">
<path d="M2390 5094 c-942 -70 -1753 -633 -2141 -1484 -154 -336 -223 -662
-223 -1050 0 -388 69 -714 223 -1050 255 -560 701 -1006 1261 -1261 336 -154
662 -223 1050 -223 388 0 714 69 1050 223 560 255 1006 701 1261 1261 154 336
223 662 223 1050 0 388 -69 714 -223 1050 -363 798 -1100 1345 -1971 1465
-115 16 -406 26 -510 19z m-1642 -925 c2 -23 2 -23 -13 -5 -18 24 -20 39 -2
34 6 -3 13 -15 15 -29z m2292 -29 c0 -5 -13 -10 -30 -10 -16 0 -30 5 -30 10 0
6 14 10 30 10 17 0 30 -4 30 -10z m-2080 -10 c0 -5 -13 -10 -30 -10 -16 0 -30
5 -30 10 0 6 14 10 30 10 17 0 30 -4 30 -10z m50 -80 c0 -27 -3 -30 -30 -30
-27 0 -30 3 -30 30 0 27 3 30 30 30 27 0 30 -3 30 -30z m2220 10 c0 -5 -13
-10 -30 -10 -16 0 -30 5 -30 10 0 6 14 10 30 10 17 0 30 -4 30 -10z m-80 -46
c0 -33 -2 -35 -27 -32 -47 5 -45 68 2 68 22 0 25 -4 25 -36z m-70 -8 c0 -3 -4
-8 -10 -11 -5 -3 -10 -1 -10 4 0 6 5 11 10 11 6 0 10 -2 10 -4z m-1820 -16 c0
-5 -13 -10 -30 -10 -16 0 -30 5 -30 10 0 6 14 10 30 10 17 0 30 -4 30 -10z
m2060 -40 c0 -27 -3 -30 -30 -30 -27 0 -30 3 -30 30 0 27 3 30 30 30 27 0 30
-3 30 -30z m105 20 c4 -6 -7 -10 -24 -10 -17 0 -31 5 -31 10 0 6 11 10 24 10
14 0 28 -4 31 -10z m-2320 -45 c0 -37 -28 -46 -45 -15 -16 29 -5 52 22 48 18
-2 23 -9 23 -33z m195 -5 c0 -27 -3 -30 -30 -30 -27 0 -30 3 -30 30 0 27 3 30
30 30 27 0 30 -3 30 -30z m1898 -53 c3 -23 0 -27 -22 -27 -23 0 -24 2 -14 30
12 36 32 34 36 -3z m302 3 c0 -27 -3 -30 -30 -30 -27 0 -30 3 -30 30 0 27 3
30 30 30 27 0 30 -3 30 -30z m125 10 c4 -6 -7 -10 -24 -10 -17 0 -31 5 -31 10
0 6 11 10 24 10 14 0 28 -4 31 -10z m-2085 -10 c0 -5 -13 -10 -30 -10 -16 0
-30 5 -30 10 0 6 14 10 30 10 17 0 30 -4 30 -10z m1770 -36 c0 -33 -2 -35 -27
-32 -47 5 -45 68 2 68 22 0 25 -4 25 -36z m-1930 -24 c0 -27 -3 -30 -30 -30
-27 0 -30 3 -30 30 0 27 3 30 30 30 27 0 30 -3 30 -30z m190 0 c0 -27 -3 -30
-30 -30 -27 0 -30 3 -30 30 0 27 3 30 30 30 27 0 30 -3 30 -30z m2120 -20 c0
-27 -3 -30 -30 -30 -27 0 -30 3 -30 30 0 27 3 30 30 30 27 0 30 -3 30 -30z
m-230 -10 c0 -27 -3 -30 -30 -30 -27 0 -30 3 -30 30 0 27 3 30 30 30 27 0 30
-3 30 -30z m-2200 -10 c0 -37 -13 -39 -28 -5 -16 34 -15 35 8 35 16 0 20 -7
20 -30z m2560 20 c0 -5 -14 -10 -31 -10 -17 0 -28 4 -24 10 3 6 17 10 31 10
13 0 24 -4 24 -10z m-2042 -27 c-10 -2 -26 -2 -35 0 -10 3 -2 5 17 5 19 0 27
-2 18 -5z m1837 -43 c0 -20 -6 -26 -28 -28 -18 -2 -29 2 -33 12 -11 28 4 48
33 44 22 -2 28 -8 28 -28z m-1990 -15 c0 -27 -3 -30 -30 -30 -21 0 -31 5 -33
18 -6 33 6 49 35 45 24 -3 28 -8 28 -33z m183 3 c-2 -28 -7 -33 -28 -33 -21 0
-26 5 -28 33 -3 30 -1 32 28 32 29 0 31 -2 28 -32z m2062 2 c0 -27 -3 -30 -30
-30 -27 0 -30 3 -30 30 0 27 3 30 30 30 27 0 30 -3 30 -30z m-2405 -25 c0 -25
-4 -30 -25 -30 -16 0 -26 6 -28 18 -6 30 6 49 30 45 18 -2 23 -9 23 -33z
m1885 5 c0 -27 -3 -30 -30 -30 -27 0 -30 3 -30 30 0 27 3 30 30 30 27 0 30 -3
30 -30z m655 20 c4 -6 -7 -10 -25 -10 -18 0 -29 4 -25 10 3 6 15 10 25 10 10
0 22 -4 25 -10z m-550 -45 c0 -27 -3 -30 -30 -30 -21 0 -31 5 -33 18 -6 33 6
49 35 45 24 -3 28 -8 28 -33z m320 -10 c0 -25 -4 -30 -25 -30 -16 0 -26 6 -28
18 -6 30 6 49 30 45 18 -2 23 -9 23 -33z m-1765 15 c0 -5 -11 -10 -24 -10 -14
0 -28 5 -31 10 -4 6 7 10 24 10 17 0 31 -4 31 -10z m2035 -35 c0 -27 -3 -30
-30 -30 -21 0 -31 5 -33 18 -6 33 6 49 35 45 24 -3 28 -8 28 -33z m-460 -10
c0 -27 -3 -30 -30 -30 -21 0 -31 5 -33 18 -6 33 6 49 35 45 24 -3 28 -8 28
-33z m-1555 -5 c0 -27 -3 -30 -30 -30 -27 0 -30 3 -30 30 0 27 3 30 30 30 27
0 30 -3 30 -30z m-180 -10 c0 -27 -3 -30 -30 -30 -27 0 -30 3 -30 30 0 27 3
30 30 30 27 0 30 -3 30 -30z m2318 23 c-10 -2 -26 -2 -35 0 -10 3 -2 5 17 5
19 0 27 -2 18 -5z m-2470 -40 c3 -31 1 -33 -27 -33 -29 0 -31 3 -31 36 0 33 2
35 28 32 22 -2 28 -8 30 -35z m2250 -5 c3 -26 1 -28 -32 -28 -31 0 -36 3 -36
23 0 31 9 39 40 35 19 -2 26 -10 28 -30z m-1738 12 c0 -5 -14 -10 -31 -10 -17
0 -28 4 -24 10 3 6 17 10 31 10 13 0 24 -4 24 -10z m1515 -25 c0 -27 -3 -30
-30 -30 -21 0 -31 5 -33 18 -6 33 6 49 35 45 24 -3 28 -8 28 -33z m485 -5 c0
-27 -3 -30 -30 -30 -27 0 -30 3 -30 30 0 27 3 30 30 30 27 0 30 -3 30 -30z
m-2632 -12 c3 -26 1 -28 -32 -28 -31 0 -36 3 -36 23 0 31 9 39 40 35 19 -2 26
-10 28 -30z m647 -13 c0 -27 -3 -30 -30 -30 -21 0 -31 5 -33 18 -6 33 6 49 35
45 24 -3 28 -8 28 -33z m2115 25 c0 -5 -11 -10 -25 -10 -14 0 -25 5 -25 10 0
6 11 10 25 10 14 0 25 -4 25 -10z m-2280 -40 c0 -27 -3 -30 -30 -30 -27 0 -30
3 -30 30 0 27 3 30 30 30 27 0 30 -3 30 -30z m1340 0 c0 -20 -5 -30 -15 -30
-18 0 -18 2 -3 35 15 32 18 32 18 -5z m80 -6 c0 -33 -2 -35 -27 -32 -47 5 -45
68 2 68 22 0 25 -4 25 -36z m625 1 c0 -27 -3 -30 -30 -30 -21 0 -31 5 -33 18
-6 33 6 49 35 45 24 -3 28 -8 28 -33z m-235 -5 c0 -27 -3 -30 -30 -30 -27 0
-30 3 -30 30 0 27 3 30 30 30 27 0 30 -3 30 -30z m-1960 -10 c0 -27 -3 -30
-30 -30 -27 0 -30 3 -30 30 0 27 3 30 30 30 27 0 30 -3 30 -30z m480 20 c0 -5
-11 -10 -24 -10 -14 0 -28 5 -31 10 -4 6 7 10 24 10 17 0 31 -4 31 -10z m1195
-25 c0 -27 -3 -30 -30 -30 -21 0 -31 5 -33 18 -6 33 6 49 35 45 24 -3 28 -8
28 -33z m783 8 c-2 -22 -9 -29 -30 -31 -25 -3 -28 0 -28 27 0 28 3 31 31 31
27 0 30 -3 27 -27z m-2588 -33 c0 -27 -3 -30 -30 -30 -27 0 -30 3 -30 30 0 27
3 30 30 30 27 0 30 -3 30 -30z m620 0 c0 -27 -3 -30 -30 -30 -27 0 -30 3 -30
30 0 27 3 30 30 30 27 0 30 -3 30 -30z m1295 -5 c0 -25 -4 -30 -25 -30 -16 0
-26 6 -28 18 -6 30 6 49 30 45 18 -2 23 -9 23 -33z m-1175 15 c0 -5 -9 -10
-20 -10 -11 0 -20 5 -20 10 0 6 9 10 20 10 11 0 20 -4 20 -10z m1500 -20 c0
-27 -3 -30 -30 -30 -27 0 -30 3 -30 30 0 27 3 30 30 30 27 0 30 -3 30 -30z
m240 0 c0 -27 -3 -30 -30 -30 -27 0 -30 3 -30 30 0 27 3 30 30 30 27 0 30 -3
30 -30z m-2010 -10 c0 -27 -3 -30 -30 -30 -27 0 -30 3 -30 30 0 27 3 30 30 30
27 0 30 -3 30 -30z m-142 -22 c3 -26 1 -28 -32 -28 -31 0 -36 3 -36 23 0 31 9
39 40 35 19 -2 26 -10 28 -30z m1717 -3 c0 -27 -3 -30 -30 -30 -21 0 -31 5
-33 18 -6 33 6 49 35 45 24 -3 28 -8 28 -33z m-1271 9 c13 -33 6 -44 -24 -44
-27 0 -30 3 -30 30 0 25 4 30 24 30 13 0 27 -7 30 -16z m-864 -24 c0 -38 -26
-41 -40 -4 -13 34 -13 34 15 34 21 0 25 -5 25 -30z m2475 -5 c0 -27 -3 -30
-30 -30 -21 0 -31 5 -33 18 -6 33 6 49 35 45 24 -3 28 -8 28 -33z m215 24 c0
-17 -20 -49 -30 -49 -6 0 -10 14 -10 30 0 23 4 30 20 30 11 0 20 -5 20 -11z
m-2405 -34 c0 -27 -3 -30 -30 -30 -21 0 -31 5 -33 18 -6 33 6 49 35 45 24 -3
28 -8 28 -33z m445 -5 c0 -27 -3 -30 -30 -30 -27 0 -30 3 -30 30 0 27 3 30 30
30 27 0 30 -3 30 -30z m1540 -10 c0 -27 -3 -30 -30 -30 -27 0 -30 3 -30 30 0
27 3 30 30 30 27 0 30 -3 30 -30z m-440 -10 c0 -25 -4 -30 -25 -30 -27 0 -31
10 -15 41 17 30 40 24 40 -11z m-1232 -7 c-3 -24 -8 -28 -33 -28 -25 0 -30 4
-33 28 -3 25 -1 27 33 27 34 0 36 -2 33 -27z m1312 -3 c0 -27 -3 -30 -30 -30
-27 0 -30 3 -30 30 0 27 3 30 30 30 27 0 30 -3 30 -30z m705 -5 c0 -25 -4 -30
-27 -33 -26 -3 -28 -1 -28 33 0 34 2 36 28 33 23 -3 27 -8 27 -33z m-2437 -7
c3 -26 1 -28 -32 -28 -31 0 -36 3 -36 23 0 31 9 39 40 35 19 -2 26 -10 28 -30z
m702 -4 c0 -33 -2 -35 -27 -32 -47 5 -45 68 2 68 22 0 25 -4 25 -36z m1130 6
c0 -27 -3 -30 -30 -30 -27 0 -30 3 -30 30 0 27 3 30 30 30 27 0 30 -3 30 -30z
m390 -10 c0 -27 -3 -30 -30 -30 -27 0 -30 3 -30 30 0 27 3 30 30 30 27 0 30
-3 30 -30z m-1930 -10 c0 -27 -3 -30 -30 -30 -18 0 -33 6 -36 15 -11 27 4 45
36 45 27 0 30 -3 30 -30z m2202 8 c-7 -7 -12 -8 -12 -2 0 6 3 14 7 17 3 4 9 5
12 2 2 -3 -1 -11 -7 -17z m-562 -18 c0 -27 -3 -30 -30 -30 -27 0 -30 3 -30 30
0 27 3 30 30 30 27 0 30 -3 30 -30z m-1350 -10 c0 -27 -3 -30 -30 -30 -27 0
-30 3 -30 30 0 27 3 30 30 30 27 0 30 -3 30 -30z m200 0 c9 -16 8 -20 -5 -20
-8 0 -15 9 -15 20 0 11 2 20 5 20 2 0 9 -9 15 -20z m1575 -15 c0 -27 -3 -30
-30 -30 -21 0 -31 5 -33 18 -6 33 6 49 35 45 24 -3 28 -8 28 -33z m-2185 -11
c0 -33 -2 -35 -27 -32 -47 5 -45 68 2 68 22 0 25 -4 25 -36z m1880 5 c0 -28
-2 -30 -32 -27 -28 2 -34 8 -36 31 -3 25 -1 27 32 27 33 0 36 -2 36 -31z
m-2120 0 c0 -11 -4 -17 -10 -14 -5 3 -10 13 -10 21 0 8 5 14 10 14 6 0 10 -9
10 -21z m528 -16 c-3 -24 -8 -28 -33 -28 -25 0 -30 4 -33 28 -3 25 -1 27 33
27 34 0 36 -2 33 -27z m262 -3 c0 -27 -3 -30 -30 -30 -27 0 -30 3 -30 30 0 27
3 30 30 30 27 0 30 -3 30 -30z m1448 -12 c3 -26 1 -28 -32 -28 -31 0 -36 3
-36 23 0 31 9 39 40 35 19 -2 26 -10 28 -30z m312 9 c0 -7 -6 -22 -14 -32 -18
-25 -46 -13 -46 20 0 21 5 25 30 25 18 0 30 -5 30 -13z m-1651 -27 c9 -28 8
-30 -15 -30 -20 0 -24 5 -24 30 0 19 5 30 14 30 8 0 19 -13 25 -30z m-749 -10
c0 -27 -3 -30 -30 -30 -27 0 -30 3 -30 30 0 27 3 30 30 30 27 0 30 -3 30 -30z
m260 0 c0 -27 -3 -30 -30 -30 -27 0 -30 3 -30 30 0 27 3 30 30 30 27 0 30 -3
30 -30z m1418 -2 c-2 -25 -9 -33 -30 -39 -27 -7 -28 -6 -28 32 0 37 2 39 31
39 28 0 30 -2 27 -32z m-1148 -8 c0 -27 -3 -30 -30 -30 -27 0 -30 3 -30 30 0
27 3 30 30 30 27 0 30 -3 30 -30z m1228 3 c-3 -24 -8 -28 -33 -28 -25 0 -30 4
-33 28 -3 25 -1 27 33 27 34 0 36 -2 33 -27z m452 -3 c0 -27 -3 -30 -30 -30
-27 0 -30 3 -30 30 0 27 3 30 30 30 27 0 30 -3 30 -30z m-365 -10 c0 -20 -6
-26 -28 -28 -18 -2 -29 2 -33 12 -11 28 4 48 33 44 22 -2 28 -8 28 -28z
m-1180 -25 c0 -27 -3 -30 -30 -30 -21 0 -31 5 -33 18 -6 33 6 49 35 45 24 -3
28 -8 28 -33z m1275 5 c0 -27 -3 -30 -30 -30 -27 0 -30 3 -30 30 0 27 3 30 30
30 27 0 30 -3 30 -30z m390 0 c0 -27 -3 -30 -30 -30 -27 0 -30 3 -30 30 0 27
3 30 30 30 27 0 30 -3 30 -30z m-2170 -10 c0 -27 -3 -30 -30 -30 -27 0 -30 3
-30 30 0 27 3 30 30 30 27 0 30 -3 30 -30z m260 0 c0 -27 -3 -30 -30 -30 -27
0 -30 3 -30 30 0 27 3 30 30 30 27 0 30 -3 30 -30z m1630 -10 c0 -27 -3 -30
-30 -30 -27 0 -30 3 -30 30 0 27 3 30 30 30 27 0 30 -3 30 -30z m-1260 -10 c0
-27 -3 -30 -30 -30 -27 0 -30 3 -30 30 0 27 3 30 30 30 27 0 30 -3 30 -30z
m1615 8 c-12 -39 -25 -44 -25 -10 0 22 5 32 16 32 11 0 14 -6 9 -22z m-1847
-30 c-2 -28 -7 -33 -28 -33 -21 0 -26 5 -28 33 -3 30 -1 32 28 32 29 0 31 -2
28 -32z m1602 2 c0 -27 -3 -30 -30 -30 -27 0 -30 3 -30 30 0 27 3 30 30 30 27
0 30 -3 30 -30z m-1842 -12 c3 -26 1 -28 -32 -28 -31 0 -36 3 -36 23 0 31 9
39 40 35 19 -2 26 -10 28 -30z m-230 -15 c-4 -39 -40 -43 -56 -8 -16 35 -17
35 24 35 33 0 35 -2 32 -27z m2182 -3 c0 -27 -3 -30 -30 -30 -27 0 -30 3 -30
30 0 27 3 30 30 30 27 0 30 -3 30 -30z m-1580 -10 c0 -27 -3 -30 -30 -30 -27
0 -30 3 -30 30 0 27 3 30 30 30 27 0 30 -3 30 -30z m1075 -5 c0 -25 -4 -30
-27 -33 -26 -3 -28 -1 -28 33 0 34 2 36 28 33 23 -3 27 -8 27 -33z m-1310 -10
c0 -25 -4 -30 -25 -30 -16 0 -26 6 -28 18 -6 30 6 49 30 45 18 -2 23 -9 23
-33z m1245 5 c0 -23 -4 -30 -20 -30 -22 0 -23 3 -14 38 9 33 34 28 34 -8z
m140 0 c0 -27 -3 -30 -30 -30 -27 0 -30 3 -30 30 0 27 3 30 30 30 27 0 30 -3
30 -30z m-1030 -10 c0 -27 -3 -30 -30 -30 -27 0 -30 3 -30 30 0 27 3 30 30 30
27 0 30 -3 30 -30z m1120 0 c0 -27 -3 -30 -30 -30 -27 0 -30 3 -30 30 0 27 3
30 30 30 27 0 30 -3 30 -30z m448 3 c-2 -22 -9 -29 -30 -31 -25 -3 -28 0 -28
27 0 28 3 31 31 31 27 0 30 -3 27 -27z m-2148 -13 c0 -27 -3 -30 -30 -30 -27
0 -30 3 -30 30 0 27 3 30 30 30 27 0 30 -3 30 -30z m1790 0 c0 -27 -3 -30 -30
-30 -27 0 -30 3 -30 30 0 27 3 30 30 30 27 0 30 -3 30 -30z m-1148 -5 c13 -28
6 -40 -17 -32 -17 7 -21 57 -5 57 6 0 16 -11 22 -25z m-274 -17 c3 -26 1 -28
-32 -28 -31 0 -36 3 -36 23 0 31 9 39 40 35 19 -2 26 -10 28 -30z m1522 2 c0
-27 -3 -30 -30 -30 -27 0 -30 3 -30 30 0 27 3 30 30 30 27 0 30 -3 30 -30z
m-1750 -20 c0 -27 -3 -30 -30 -30 -27 0 -30 3 -30 30 0 27 3 30 30 30 27 0 30
-3 30 -30z m1850 0 c0 -27 -3 -30 -30 -30 -27 0 -30 3 -30 30 0 27 3 30 30 30
27 0 30 -3 30 -30z m-1500 -10 c0 -27 -3 -30 -30 -30 -27 0 -30 3 -30 30 0 27
3 30 30 30 27 0 30 -3 30 -30z m1605 -15 c0 -27 -3 -30 -30 -30 -21 0 -31 5
-33 18 -6 33 6 49 35 45 24 -3 28 -8 28 -33z m-1500 -10 c0 -25 -4 -30 -27
-33 -26 -3 -28 -1 -28 33 0 34 2 36 28 33 23 -3 27 -8 27 -33z m-655 -7 c-1
-31 -1 -32 -15 -14 -19 25 -19 46 0 46 10 0 15 -10 15 -32z m338 5 c-3 -24 -8
-28 -33 -28 -25 0 -30 4 -33 28 -3 25 -1 27 33 27 34 0 36 -2 33 -27z m412 -2
c16 -32 12 -41 -20 -41 -27 0 -30 3 -30 30 0 23 4 30 20 30 10 0 24 -9 30 -19z
m1478 -11 c-12 -36 -32 -34 -36 3 -3 23 0 27 22 27 23 0 24 -2 14 -30z m-628
-10 c0 -27 -3 -30 -30 -30 -19 0 -30 5 -30 14 0 30 13 46 36 46 20 0 24 -5 24
-30z m70 0 c0 -27 -3 -30 -30 -30 -27 0 -30 3 -30 30 0 27 3 30 30 30 27 0 30
-3 30 -30z m80 0 c0 -27 -3 -30 -30 -30 -27 0 -30 3 -30 30 0 27 3 30 30 30
27 0 30 -3 30 -30z m-1630 -10 c0 -27 -3 -30 -30 -30 -27 0 -30 3 -30 30 0 27
3 30 30 30 27 0 30 -3 30 -30z m340 0 c0 -27 -3 -30 -30 -30 -27 0 -30 3 -30
30 0 27 3 30 30 30 27 0 30 -3 30 -30z m1370 0 c0 -27 -3 -30 -30 -30 -27 0
-30 3 -30 30 0 27 3 30 30 30 27 0 30 -3 30 -30z m90 -10 c0 -27 -3 -30 -30
-30 -27 0 -30 3 -30 30 0 27 3 30 30 30 27 0 30 -3 30 -30z m-1345 -15 c0 -27
-3 -30 -30 -30 -21 0 -31 5 -33 18 -6 33 6 49 35 45 24 -3 28 -8 28 -33z
m1435 5 c0 -27 -3 -30 -30 -30 -27 0 -30 3 -30 30 0 27 3 30 30 30 27 0 30 -3
30 -30z m-1760 -10 c0 -27 -3 -30 -30 -30 -27 0 -30 3 -30 30 0 27 3 30 30 30
27 0 30 -3 30 -30z m425 -15 c0 -25 -4 -30 -25 -30 -16 0 -26 6 -28 18 -6 30
6 49 30 45 18 -2 23 -9 23 -33z m1430 5 c0 -20 -6 -26 -28 -28 -18 -2 -29 2
-33 12 -11 28 4 48 33 44 22 -2 28 -8 28 -28z m-1727 -22 c3 -26 1 -28 -32
-28 -31 0 -36 3 -36 23 0 31 9 39 40 35 19 -2 26 -10 28 -30z m400 5 c-3 -24
-8 -28 -33 -28 -25 0 -30 4 -33 28 -3 25 -1 27 33 27 34 0 36 -2 33 -27z
m1422 -3 c0 -27 -3 -30 -30 -30 -27 0 -30 3 -30 30 0 27 3 30 30 30 27 0 30
-3 30 -30z m27 8 c-3 -8 -6 -5 -6 6 -1 11 2 17 5 13 3 -3 4 -12 1 -19z m-1407
-36 c0 -7 -4 -10 -10 -7 -5 3 -10 16 -10 28 0 18 2 19 10 7 5 -8 10 -21 10
-28z m-330 -2 c0 -27 -3 -30 -30 -30 -27 0 -30 3 -30 30 0 27 3 30 30 30 27 0
30 -3 30 -30z m-310 -10 c0 -27 -3 -30 -30 -30 -27 0 -30 3 -30 30 0 27 3 30
30 30 27 0 30 -3 30 -30z m1555 0 c0 -23 -4 -25 -44 -26 -24 -1 -61 -5 -82 -8
-43 -7 -44 -5 -28 27 18 33 28 37 94 34 57 -2 60 -3 60 -27z m75 0 c0 -27 -3
-30 -30 -30 -27 0 -30 3 -30 30 0 27 3 30 30 30 27 0 30 -3 30 -30z m-1210
-10 c0 -27 -3 -30 -30 -30 -27 0 -30 3 -30 30 0 27 3 30 30 30 27 0 30 -3 30
-30z m1290 0 c0 -27 -3 -30 -30 -30 -27 0 -30 3 -30 30 0 27 3 30 30 30 27 0
30 -3 30 -30z m-1190 -16 c0 -33 -2 -35 -27 -32 -47 5 -45 68 2 68 22 0 25 -4
25 -36z m1278 9 c-3 -24 -8 -28 -33 -28 -25 0 -30 4 -33 28 -3 25 -1 27 33 27
34 0 36 -2 33 -27z m-1678 -13 c0 -27 -3 -30 -30 -30 -27 0 -30 3 -30 30 0 27
3 30 30 30 27 0 30 -3 30 -30z m1760 0 c0 -27 -3 -30 -30 -30 -27 0 -30 3 -30
30 0 27 3 30 30 30 27 0 30 -3 30 -30z m-1262 -7 c-3 -24 -8 -28 -33 -28 -25
0 -30 4 -33 28 -3 25 -1 27 33 27 34 0 36 -2 33 -27z m60 2 c16 -35 16 -35
-13 -35 -21 0 -25 5 -25 30 0 37 22 40 38 5z m1292 -5 c0 -27 -3 -30 -30 -30
-27 0 -30 3 -30 30 0 27 3 30 30 30 27 0 30 -3 30 -30z m-1732 -12 c3 -26 1
-28 -32 -28 -31 0 -36 3 -36 23 0 31 9 39 40 35 19 -2 26 -10 28 -30z m1814 7
c-8 -48 -52 -57 -52 -11 0 29 9 38 35 34 14 -2 19 -9 17 -23z m-1707 -30 c0
-27 -3 -30 -30 -30 -21 0 -31 5 -33 18 -6 33 6 49 35 45 24 -3 28 -8 28 -33z
m105 -15 c0 -27 -3 -30 -30 -30 -27 0 -30 3 -30 30 0 27 3 30 30 30 27 0 30
-3 30 -30z m-390 -10 c0 -38 -26 -41 -40 -4 -13 34 -13 34 15 34 21 0 25 -5
25 -30z m1545 -5 c0 -25 -4 -30 -27 -33 -26 -3 -28 -1 -28 33 0 34 2 36 28 33
23 -3 27 -8 27 -33z m-1065 -5 c0 -27 -3 -30 -30 -30 -27 0 -30 3 -30 30 0 27
3 30 30 30 27 0 30 -3 30 -30z m90 -6 c0 -33 -2 -35 -27 -32 -47 5 -45 68 2
68 22 0 25 -4 25 -36z m840 6 c0 -25 -4 -30 -25 -30 -27 0 -31 10 -15 41 17
30 40 24 40 -11z m70 0 c0 -27 -3 -30 -30 -30 -27 0 -30 3 -30 30 0 27 3 30
30 30 27 0 30 -3 30 -30z m140 0 c0 -27 -3 -30 -30 -30 -27 0 -30 3 -30 30 0
27 3 30 30 30 27 0 30 -3 30 -30z m80 0 c0 -27 -3 -30 -30 -30 -27 0 -30 3
-30 30 0 27 3 30 30 30 27 0 30 -3 30 -30z m-1595 -10 c0 -20 -6 -26 -28 -28
-29 -4 -44 16 -33 44 4 10 15 14 33 12 22 -2 28 -8 28 -28z m553 -2 c3 -26 1
-28 -32 -28 -31 0 -36 3 -36 23 0 31 9 39 40 35 19 -2 26 -10 28 -30z m1122 2
c0 -27 -3 -30 -30 -30 -27 0 -30 3 -30 30 0 27 3 30 30 30 27 0 30 -3 30 -30z
m88 -7 c-3 -24 -8 -28 -33 -28 -25 0 -30 4 -33 28 -3 25 -1 27 33 27 34 0 36
-2 33 -27z m-1658 -13 c0 -27 -3 -30 -30 -30 -27 0 -30 3 -30 30 0 27 3 30 30
30 27 0 30 -3 30 -30z m1740 0 c0 -27 -3 -30 -30 -30 -27 0 -30 3 -30 30 0 27
3 30 30 30 27 0 30 -3 30 -30z m50 17 c0 -7 -7 -22 -15 -33 -14 -18 -14 -18
-15 7 0 14 3 29 7 32 11 11 23 8 23 -6z m-1690 -37 c0 -27 -3 -30 -30 -30 -27
0 -30 3 -30 30 0 27 3 30 30 30 27 0 30 -3 30 -30z m95 -15 c0 -25 -4 -30 -25
-30 -16 0 -26 6 -28 18 -6 30 6 49 30 45 18 -2 23 -9 23 -33z m95 -11 c0 -33
-2 -35 -27 -32 -47 5 -45 68 2 68 22 0 25 -4 25 -36z m-460 4 c0 -18 -2 -20
-9 -8 -6 8 -7 18 -5 22 9 14 14 9 14 -14z m545 -13 c0 -25 -4 -30 -27 -33 -26
-3 -28 -1 -28 33 0 34 2 36 28 33 23 -3 27 -8 27 -33z m85 -5 c0 -27 -3 -30
-30 -30 -27 0 -30 3 -30 30 0 27 3 30 30 30 27 0 30 -3 30 -30z m45 -7 c5 -17
2 -23 -10 -23 -19 0 -30 24 -21 47 8 19 21 9 31 -24z m800 2 c0 -25 -4 -30
-25 -30 -16 0 -26 6 -28 18 -6 30 6 49 30 45 18 -2 23 -9 23 -33z m75 -1 c0
-33 -2 -35 -27 -32 -47 5 -45 68 2 68 22 0 25 -4 25 -36z m75 1 c0 -27 -3 -30
-30 -30 -21 0 -31 5 -33 18 -6 33 6 49 35 45 24 -3 28 -8 28 -33z m-1525 -5
c0 -27 -3 -30 -30 -30 -27 0 -30 3 -30 30 0 27 3 30 30 30 27 0 30 -3 30 -30z
m1310 1 c0 -25 -4 -29 -33 -33 -31 -3 -32 -2 -29 29 4 29 8 33 33 33 25 0 29
-4 29 -29z m290 -1 c0 -27 -3 -30 -30 -30 -27 0 -30 3 -30 30 0 27 3 30 30 30
27 0 30 -3 30 -30z m80 0 c0 -27 -3 -30 -30 -30 -27 0 -30 3 -30 30 0 27 3 30
30 30 27 0 30 -3 30 -30z m80 -10 c0 -27 -3 -30 -30 -30 -27 0 -30 3 -30 30 0
27 3 30 30 30 27 0 30 -3 30 -30z m-1660 -10 c0 -27 -3 -30 -30 -30 -27 0 -30
3 -30 30 0 27 3 30 30 30 27 0 30 -3 30 -30z m1738 3 c-2 -22 -9 -29 -30 -31
-25 -3 -28 0 -28 27 0 28 3 31 31 31 27 0 30 -3 27 -27z m-1638 -13 c0 -27 -3
-30 -30 -30 -27 0 -30 3 -30 30 0 27 3 30 30 30 27 0 30 -3 30 -30z m85 -15
c0 -25 -4 -30 -25 -30 -16 0 -26 6 -28 18 -6 30 6 49 30 45 18 -2 23 -9 23
-33z m90 -10 c0 -25 -4 -30 -27 -33 -26 -3 -28 -1 -28 33 0 34 2 36 28 33 23
-3 27 -8 27 -33z m85 -5 c0 -27 -3 -30 -30 -30 -27 0 -30 3 -30 30 0 27 3 30
30 30 27 0 30 -3 30 -30z m80 -6 c0 -33 -2 -35 -27 -32 -47 5 -45 68 2 68 22
0 25 -4 25 -36z m69 10 c14 -31 7 -44 -25 -44 -21 0 -24 5 -24 35 0 27 4 35
18 35 11 0 24 -12 31 -26z m-571 -31 c-5 -41 -40 -43 -55 -3 -11 30 -11 30 24
30 32 0 34 -2 31 -27z m1242 -3 c0 -23 -4 -30 -20 -30 -23 0 -23 0 -10 34 13
35 30 33 30 -4z m208 3 l-3 -28 -97 -2 -98 -2 0 29 0 30 101 0 100 0 -3 -27z
m72 -3 c0 -27 -3 -30 -30 -30 -27 0 -30 3 -30 30 0 27 3 30 30 30 27 0 30 -3
30 -30z m75 0 c0 -20 -6 -26 -28 -28 -18 -2 -29 2 -33 12 -11 28 4 48 33 44
22 -2 28 -8 28 -28z m75 -6 c0 -33 -2 -35 -27 -32 -23 2 -29 8 -31 36 -3 30
-1 32 27 32 29 0 31 -3 31 -36z m-1580 -4 c0 -27 -3 -30 -30 -30 -27 0 -30 3
-30 30 0 27 3 30 30 30 27 0 30 -3 30 -30z m1660 0 c0 -27 -3 -30 -30 -30 -27
0 -30 3 -30 30 0 27 3 30 30 30 27 0 30 -3 30 -30z m55 8 c-4 -13 -13 -30 -21
-38 -12 -12 -14 -9 -14 23 0 31 3 37 21 37 16 0 19 -4 14 -22z m-1625 -18 c0
-27 -3 -30 -30 -30 -27 0 -30 3 -30 30 0 27 3 30 30 30 27 0 30 -3 30 -30z
m90 -10 c0 -27 -3 -30 -30 -30 -27 0 -30 3 -30 30 0 27 3 30 30 30 27 0 30 -3
30 -30z m80 -10 c0 -27 -3 -30 -30 -30 -27 0 -30 3 -30 30 0 27 3 30 30 30 27
0 30 -3 30 -30z m85 -5 c0 -27 -3 -30 -30 -30 -21 0 -31 5 -33 18 -6 33 6 49
35 45 24 -3 28 -8 28 -33z m75 -5 c0 -27 -3 -30 -30 -30 -27 0 -30 3 -30 30 0
27 3 30 30 30 27 0 30 -3 30 -30z m80 0 c0 -27 -3 -30 -30 -30 -27 0 -30 3
-30 30 0 27 3 30 30 30 27 0 30 -3 30 -30z m30 -16 c0 -8 -4 -14 -10 -14 -5 0
-10 9 -10 21 0 11 5 17 10 14 6 -3 10 -13 10 -21z m-592 -17 c2 -15 -1 -27 -6
-27 -12 0 -33 46 -24 54 12 13 27 -1 30 -27z m1302 -1 l0 -35 -60 0 c-65 1
-72 5 -63 38 5 19 11 22 35 19 16 -3 31 -1 34 4 3 4 16 8 30 8 21 0 24 -5 24
-34z m70 -2 c0 -33 -2 -35 -27 -32 -47 5 -45 68 2 68 22 0 25 -4 25 -36z m145
1 l0 -30 -65 0 c-54 0 -65 3 -68 18 -8 39 4 46 70 44 63 -2 63 -2 63 -32z
m-1435 -5 c0 -27 -3 -30 -30 -30 -27 0 -30 3 -30 30 0 27 3 30 30 30 27 0 30
-3 30 -30z m1510 0 c0 -27 -3 -30 -30 -30 -27 0 -30 3 -30 30 0 27 3 30 30 30
27 0 30 -3 30 -30z m75 0 c0 -20 -6 -26 -28 -28 -18 -2 -29 2 -33 12 -11 28 4
48 33 44 22 -2 28 -8 28 -28z m75 0 c0 -27 -3 -30 -30 -30 -27 0 -30 3 -30 30
0 27 3 30 30 30 27 0 30 -3 30 -30z m-1570 -10 c0 -27 -3 -30 -30 -30 -27 0
-30 3 -30 30 0 27 3 30 30 30 27 0 30 -3 30 -30z m85 -10 c0 -21 -5 -26 -32
-28 -31 -3 -33 -1 -33 28 0 29 2 31 33 28 27 -2 32 -7 32 -28z m80 -5 c0 -27
-3 -30 -30 -30 -21 0 -31 5 -33 18 -6 33 6 49 35 45 24 -3 28 -8 28 -33z m80
-5 c0 -20 -6 -26 -28 -28 -18 -2 -29 2 -33 12 -11 28 4 48 33 44 22 -2 28 -8
28 -28z m75 0 c0 -27 -3 -30 -30 -30 -27 0 -30 3 -30 30 0 27 3 30 30 30 27 0
30 -3 30 -30z m78 -42 l2 -68 -31 0 c-29 0 -30 2 -28 34 2 19 0 38 -4 42 -9 9
-9 49 0 58 4 4 19 6 33 4 24 -3 25 -6 28 -70z m51 42 c5 -16 7 -30 4 -30 -4 0
1 -6 11 -13 11 -8 17 -23 14 -38 -2 -19 -9 -24 -33 -24 l-30 0 -3 68 c-2 52 1
67 12 67 8 0 19 -13 25 -30z m-519 -50 c0 -27 -3 -30 -30 -30 -27 0 -30 3 -30
30 0 27 3 30 30 30 27 0 30 -3 30 -30z m1368 3 l-3 -28 -152 -1 c-85 -1 -153
2 -153 7 0 5 9 18 19 28 17 17 35 19 156 20 l136 1 -3 -27z m72 -3 c0 -27 -3
-30 -30 -30 -27 0 -30 3 -30 30 0 27 3 30 30 30 27 0 30 -3 30 -30z m70 0 c0
-27 -3 -30 -30 -30 -27 0 -30 3 -30 30 0 27 3 30 30 30 27 0 30 -3 30 -30z
m75 0 c0 -20 -6 -26 -28 -28 -18 -2 -29 2 -33 12 -11 28 4 48 33 44 22 -2 28
-8 28 -28z m65 12 c0 -26 -25 -56 -38 -48 -7 4 -12 20 -12 37 0 24 4 29 25 29
17 0 25 -5 25 -18z m-1565 -22 c0 -20 -6 -26 -28 -28 -18 -2 -29 2 -33 12 -11
28 4 48 33 44 22 -2 28 -8 28 -28z m80 -5 c0 -27 -3 -30 -30 -30 -21 0 -31 5
-33 18 -6 33 6 49 35 45 24 -3 28 -8 28 -33z m80 -5 c0 -20 -6 -26 -28 -28
-18 -2 -29 2 -33 12 -11 28 4 48 33 44 22 -2 28 -8 28 -28z m75 0 c0 -27 -3
-30 -30 -30 -27 0 -30 3 -30 30 0 27 3 30 30 30 27 0 30 -3 30 -30z m75 -5 c0
-25 -4 -30 -27 -33 -26 -3 -28 -1 -28 33 0 34 2 36 28 33 23 -3 27 -8 27 -33z
m-375 -55 c0 -37 -22 -40 -38 -5 -16 35 -16 35 13 35 21 0 25 -5 25 -30z m75
-5 c0 -25 -4 -30 -27 -33 -26 -3 -28 -1 -28 33 0 34 2 36 28 33 23 -3 27 -8
27 -33z m1005 5 c0 -25 -4 -30 -25 -30 -27 0 -31 10 -15 41 17 30 40 24 40
-11z m70 0 c0 -27 -3 -30 -30 -30 -27 0 -30 3 -30 30 0 27 3 30 30 30 27 0 30
-3 30 -30z m70 0 c0 -27 -3 -30 -30 -30 -27 0 -30 3 -30 30 0 27 3 30 30 30
27 0 30 -3 30 -30z m70 0 c0 -27 -3 -30 -30 -30 -27 0 -30 3 -30 30 0 27 3 30
30 30 27 0 30 -3 30 -30z m70 0 c0 -27 -3 -30 -30 -30 -27 0 -30 3 -30 30 0
27 3 30 30 30 27 0 30 -3 30 -30z m70 0 c0 -27 -3 -30 -30 -30 -27 0 -30 3
-30 30 0 27 3 30 30 30 27 0 30 -3 30 -30z m80 0 c0 -27 -3 -30 -30 -30 -27 0
-30 3 -30 30 0 27 3 30 30 30 27 0 30 -3 30 -30z m70 0 c0 -27 -3 -30 -30 -30
-27 0 -30 3 -30 30 0 27 3 30 30 30 27 0 30 -3 30 -30z m40 22 c0 -5 -7 -17
-15 -28 -14 -18 -14 -18 -15 9 0 17 5 27 15 27 8 0 15 -4 15 -8z m-1465 -32
c0 -20 -6 -26 -28 -28 -18 -2 -29 2 -33 12 -11 28 4 48 33 44 22 -2 28 -8 28
-28z m75 0 c0 -27 -3 -30 -30 -30 -27 0 -30 3 -30 30 0 27 3 30 30 30 27 0 30
-3 30 -30z m76 -5 c0 -17 3 -35 6 -40 3 -6 5 -67 6 -137 l0 -128 -29 0 -29 0
-2 103 c-1 56 -3 127 -4 157 -4 70 1 82 28 78 18 -2 23 -10 24 -33z m82 -2
c-3 -24 -8 -28 -33 -28 -25 0 -30 4 -33 28 -3 25 -1 27 33 27 34 0 36 -2 33
-27z m72 -3 c0 -27 -3 -30 -30 -30 -27 0 -30 3 -30 30 0 27 3 30 30 30 27 0
30 -3 30 -30z m70 0 c0 -27 -3 -30 -30 -30 -27 0 -30 3 -30 30 0 27 3 30 30
30 27 0 30 -3 30 -30z m39 0 c9 -27 8 -30 -10 -30 -14 0 -19 7 -19 30 0 17 4
30 9 30 5 0 14 -13 20 -30z m519 -57 c3 -31 1 -33 -27 -33 -27 0 -31 3 -31 28
0 35 8 44 35 40 15 -2 21 -12 23 -35z m67 2 c0 -25 -4 -30 -25 -30 -16 0 -26
6 -28 18 -6 30 6 49 30 45 18 -2 23 -9 23 -33z m70 0 c0 -25 -4 -30 -25 -30
-16 0 -26 6 -28 18 -6 30 6 49 30 45 18 -2 23 -9 23 -33z m75 5 c0 -27 -3 -30
-30 -30 -27 0 -30 3 -30 30 0 27 3 30 30 30 27 0 30 -3 30 -30z m70 0 c0 -27
-3 -30 -30 -30 -27 0 -30 3 -30 30 0 27 3 30 30 30 27 0 30 -3 30 -30z m78 -2
c3 -26 1 -28 -32 -28 -31 0 -36 3 -36 23 0 31 9 39 40 35 19 -2 26 -10 28 -30z
m67 -3 c0 -25 -4 -30 -27 -33 -26 -3 -28 -1 -28 33 0 34 2 36 28 33 23 -3 27
-8 27 -33z m75 11 c0 -28 -24 -51 -45 -42 -15 5 -21 47 -8 59 3 4 17 7 30 7
18 0 23 -6 23 -24z m-1580 4 c0 -5 -2 -10 -4 -10 -3 0 -8 5 -11 10 -3 6 -1 10
4 10 6 0 11 -4 11 -10z m78 -17 c-3 -24 -8 -28 -33 -28 -25 0 -30 4 -33 28 -3
25 -1 27 33 27 34 0 36 -2 33 -27z m72 -3 c0 -27 -3 -30 -30 -30 -27 0 -30 3
-30 30 0 27 3 30 30 30 27 0 30 -3 30 -30z m80 0 c0 -27 -3 -30 -30 -30 -27 0
-30 3 -30 30 0 27 3 30 30 30 27 0 30 -3 30 -30z m148 -110 l0 -130 -28 0 -28
0 0 130 0 130 28 0 28 0 0 -130z m72 25 c0 -58 3 -105 8 -105 4 0 6 47 5 105
l-3 105 30 0 c28 0 30 -3 30 -35 0 -19 4 -35 8 -35 4 0 6 16 4 35 -4 32 -2 35
21 35 34 0 38 -16 43 -147 l4 -113 -30 0 c-28 0 -30 3 -30 35 0 19 -4 35 -9
35 -6 0 -7 -16 -4 -35 l6 -35 -71 0 -70 0 0 130 0 130 29 0 29 0 0 -105z
m-370 15 c0 -23 -5 -30 -19 -30 -12 0 -23 11 -30 30 -10 29 -9 30 20 30 26 0
29 -3 29 -30z m80 0 c0 -27 -3 -30 -30 -30 -27 0 -30 3 -30 30 0 27 3 30 30
30 27 0 30 -3 30 -30z m70 3 c0 -16 3 -45 6 -65 7 -38 7 -38 -29 -38 l-35 0 0
58 c0 68 2 72 34 72 20 0 24 -5 24 -27z m790 -3 c0 -23 -4 -30 -20 -30 -22 0
-25 12 -10 41 16 28 30 23 30 -11z m70 0 c0 -27 -3 -30 -30 -30 -27 0 -30 3
-30 30 0 27 3 30 30 30 27 0 30 -3 30 -30z m70 0 c0 -27 -3 -30 -30 -30 -27 0
-30 3 -30 30 0 27 3 30 30 30 27 0 30 -3 30 -30z m70 0 c0 -27 -3 -30 -30 -30
-27 0 -30 3 -30 30 0 27 3 30 30 30 27 0 30 -3 30 -30z m70 0 c0 -27 -3 -30
-30 -30 -27 0 -30 3 -30 30 0 27 3 30 30 30 27 0 30 -3 30 -30z m70 0 c0 -27
-3 -30 -30 -30 -27 0 -30 3 -30 30 0 27 3 30 30 30 27 0 30 -3 30 -30z m150 0
l0 -29 -67 2 c-66 2 -68 3 -71 30 l-3 27 70 0 71 0 0 -30z m37 0 c-6 -16 -15
-30 -19 -30 -4 0 -8 14 -8 30 0 23 5 30 19 30 17 0 18 -3 8 -30z m-933 -23 c1
-8 8 -22 14 -30 7 -9 14 -25 15 -36 1 -12 5 -21 9 -21 4 0 8 -13 8 -30 0 -27
-3 -30 -30 -30 l-30 0 0 87 c0 47 3 84 6 81 3 -4 6 -13 8 -21z m-534 -49 c-1
-31 -1 -32 -15 -14 -19 25 -19 46 0 46 10 0 15 -10 15 -32z m70 2 c0 -27 -3
-30 -30 -30 -27 0 -30 3 -30 30 0 27 3 30 30 30 27 0 30 -3 30 -30z m860 0 c0
-27 -3 -30 -30 -30 -32 0 -33 2 -24 38 4 15 14 22 30 22 20 0 24 -5 24 -30z
m70 0 c0 -27 -3 -30 -30 -30 -27 0 -30 3 -30 30 0 27 3 30 30 30 27 0 30 -3
30 -30z m220 0 l0 -28 -105 0 -105 0 0 28 0 28 105 0 105 0 0 -28z m70 0 c0
-27 -3 -30 -30 -30 -27 0 -30 3 -30 30 0 27 3 30 30 30 27 0 30 -3 30 -30z
m70 0 c0 -27 -3 -30 -30 -30 -27 0 -30 3 -30 30 0 27 3 30 30 30 27 0 30 -3
30 -30z m70 0 c0 -27 -3 -30 -30 -30 -27 0 -30 3 -30 30 0 27 3 30 30 30 27 0
30 -3 30 -30z m-1352 -72 c3 -25 0 -28 -27 -28 -21 0 -32 6 -36 20 -9 28 3 42
33 38 21 -2 28 -9 30 -30z m72 2 c0 -27 -3 -30 -30 -30 -27 0 -30 3 -30 30 0
27 3 30 30 30 27 0 30 -3 30 -30z m855 0 c0 -24 -3 -25 -67 -28 -65 -2 -68 -1
-68 21 0 34 5 36 74 34 58 -2 61 -3 61 -27z m75 0 c0 -27 -3 -30 -30 -30 -27
0 -30 3 -30 30 0 27 3 30 30 30 27 0 30 -3 30 -30z m70 0 c0 -27 -3 -30 -30
-30 -27 0 -30 3 -30 30 0 27 3 30 30 30 27 0 30 -3 30 -30z m70 0 c0 -27 -3
-30 -30 -30 -27 0 -30 3 -30 30 0 27 3 30 30 30 27 0 30 -3 30 -30z m70 0 c0
-27 -3 -30 -30 -30 -27 0 -30 3 -30 30 0 27 3 30 30 30 27 0 30 -3 30 -30z
m70 0 c0 -27 -3 -30 -30 -30 -27 0 -30 3 -30 30 0 27 3 30 30 30 27 0 30 -3
30 -30z m59 0 c-12 -32 -36 -40 -45 -15 -10 25 4 45 30 45 23 0 24 -2 15 -30z
m-563 -28 c-11 -10 -15 4 -8 28 l7 25 3 -23 c2 -13 1 -26 -2 -30z m-781 -41
c0 -34 -19 -37 -33 -6 -16 35 -15 37 11 33 16 -2 22 -10 22 -27z m75 -1 c0
-27 -3 -30 -30 -30 -27 0 -30 3 -30 30 0 27 3 30 30 30 27 0 30 -3 30 -30z
m70 0 c0 -27 -3 -30 -30 -30 -27 0 -30 3 -30 30 0 27 3 30 30 30 27 0 30 -3
30 -30z m70 0 c0 -27 -3 -30 -30 -30 -27 0 -30 3 -30 30 0 27 3 30 30 30 27 0
30 -3 30 -30z m145 0 c0 -24 -3 -25 -63 -27 -47 -1 -64 2 -69 13 -12 33 4 43
69 41 60 -2 63 -3 63 -27z m75 0 c0 -27 -3 -30 -30 -30 -27 0 -30 3 -30 30 0
27 3 30 30 30 27 0 30 -3 30 -30z m70 0 c0 -27 -3 -30 -30 -30 -27 0 -30 3
-30 30 0 27 3 30 30 30 27 0 30 -3 30 -30z m37 0 c10 -27 9 -30 -8 -30 -14 0
-19 7 -19 30 0 17 4 30 8 30 4 0 13 -13 19 -30z m323 0 l0 -29 -65 1 c-36 0
-65 2 -65 4 0 2 5 14 11 27 9 20 18 24 65 25 53 1 54 1 54 -28z m70 0 c0 -27
-3 -30 -30 -30 -27 0 -30 3 -30 30 0 27 3 30 30 30 27 0 30 -3 30 -30z m70 0
c0 -27 -3 -30 -30 -30 -27 0 -30 3 -30 30 0 27 3 30 30 30 27 0 30 -3 30 -30z
m70 0 c0 -27 -3 -30 -30 -30 -27 0 -30 3 -30 30 0 27 3 30 30 30 27 0 30 -3
30 -30z m70 0 c0 -27 -3 -30 -30 -30 -27 0 -30 3 -30 30 0 27 3 30 30 30 27 0
30 -3 30 -30z m145 0 c0 -24 -3 -25 -63 -27 -47 -1 -64 2 -69 13 -12 33 4 43
69 41 60 -2 63 -3 63 -27z m35 23 c0 -5 -5 -15 -10 -23 -8 -12 -10 -11 -10 8
0 12 5 22 10 22 6 0 10 -3 10 -7z m-1320 -73 c0 -5 -2 -10 -4 -10 -3 0 -8 5
-11 10 -3 6 -1 10 4 10 6 0 11 -4 11 -10z m70 -20 c0 -27 -3 -30 -30 -30 -27
0 -30 3 -30 30 0 27 3 30 30 30 27 0 30 -3 30 -30z m70 0 c0 -27 -3 -30 -30
-30 -27 0 -30 3 -30 30 0 27 3 30 30 30 27 0 30 -3 30 -30z m70 0 c0 -27 -3
-30 -30 -30 -27 0 -30 3 -30 30 0 27 3 30 30 30 27 0 30 -3 30 -30z m145 0 c0
-24 -3 -25 -63 -27 -65 -2 -81 8 -69 41 5 11 22 14 69 13 60 -2 63 -3 63 -27z
m75 0 c0 -27 -3 -30 -30 -30 -27 0 -30 3 -30 30 0 27 3 30 30 30 27 0 30 -3
30 -30z m70 0 c0 -27 -3 -30 -30 -30 -27 0 -30 3 -30 30 0 27 3 30 30 30 27 0
30 -3 30 -30z m60 23 c0 -5 3 -18 6 -30 6 -20 3 -23 -25 -23 -28 0 -31 3 -31
30 0 25 4 30 25 30 14 0 25 -3 25 -7z m228 -20 c-3 -24 -8 -28 -33 -28 -25 0
-30 4 -33 28 -3 25 -1 27 33 27 34 0 36 -2 33 -27z m72 -3 c0 -27 -3 -30 -30
-30 -27 0 -30 3 -30 30 0 27 3 30 30 30 27 0 30 -3 30 -30z m70 0 c0 -27 -3
-30 -30 -30 -27 0 -30 3 -30 30 0 27 3 30 30 30 27 0 30 -3 30 -30z m70 0 c0
-27 -3 -30 -30 -30 -27 0 -30 3 -30 30 0 27 3 30 30 30 27 0 30 -3 30 -30z
m70 0 c0 -27 -3 -30 -30 -30 -27 0 -30 3 -30 30 0 27 3 30 30 30 27 0 30 -3
30 -30z m148 3 c-3 -27 -5 -28 -70 -30 l-68 -2 0 29 0 30 71 0 70 0 -3 -27z
m72 23 c0 -24 -23 -56 -40 -56 -16 0 -20 7 -20 30 0 27 3 30 30 30 17 0 30 -2
30 -4z m-1221 -127 c-1 -40 -4 -58 -10 -52 -6 6 -11 20 -12 32 -1 11 -4 21 -8
21 -4 0 -12 14 -18 30 -10 29 -9 30 19 30 29 0 29 0 29 -61z m69 -35 l0 -95
-26 3 c-27 3 -27 3 -29 96 l-2 92 29 0 28 0 0 -96z m72 1 l0 -95 -29 0 -29 0
0 95 0 95 29 0 29 0 0 -95z m148 0 l0 -95 -68 0 -67 0 0 95 0 95 67 0 68 0 0
-95z m70 0 l0 -95 -29 0 -29 0 0 95 0 95 29 0 29 0 0 -95z m70 0 l0 -95 -28 0
-28 0 0 95 0 95 28 0 28 0 0 -95z m70 0 l0 -95 -28 0 -28 0 0 95 0 95 28 0 28
0 0 -95z m220 0 l0 -95 -70 0 -69 0 4 43 c3 23 13 66 23 95 l19 52 46 0 47 0
0 -95z m70 0 l0 -95 -29 0 -29 0 0 95 0 95 29 0 29 0 0 -95z m70 0 l0 -95 -28
0 -28 0 0 95 0 95 28 0 28 0 0 -95z m70 0 l0 -95 -28 0 -28 0 0 95 0 95 28 0
28 0 0 -95z m72 0 l0 -95 -29 0 -29 0 0 95 0 95 29 0 29 0 0 -95z m148 43 c0
-29 -7 -72 -15 -95 l-16 -43 -52 0 -52 0 0 95 0 95 68 0 68 0 -1 -52z m42 39
c0 -7 -7 -22 -15 -33 -14 -18 -14 -17 -15 14 0 22 5 32 15 32 8 0 15 -6 15
-13z m-660 -36 c0 -9 4 -21 10 -27 5 -5 11 -19 13 -31 2 -13 6 -26 10 -29 4
-4 7 -18 7 -31 0 -19 -5 -23 -29 -23 l-30 0 1 85 c0 47 4 82 9 79 5 -3 9 -13
9 -23z m-460 -181 c0 -37 -17 -39 -30 -4 -13 34 -13 34 10 34 16 0 20 -7 20
-30z m70 0 c0 -27 -3 -30 -30 -30 -27 0 -30 3 -30 30 0 27 3 30 30 30 27 0 30
-3 30 -30z m145 0 c0 -24 -3 -25 -63 -27 -65 -2 -81 8 -69 41 5 11 22 14 69
13 60 -2 63 -3 63 -27z m75 0 c0 -27 -3 -30 -30 -30 -27 0 -30 3 -30 30 0 27
3 30 30 30 27 0 30 -3 30 -30z m70 0 c0 -27 -3 -30 -30 -30 -27 0 -30 3 -30
30 0 27 3 30 30 30 27 0 30 -3 30 -30z m70 0 c0 -27 -3 -30 -30 -30 -27 0 -30
3 -30 30 0 27 3 30 30 30 27 0 30 -3 30 -30z m70 0 c0 -27 -3 -30 -30 -30 -27
0 -30 3 -30 30 0 27 3 30 30 30 27 0 30 -3 30 -30z m145 0 c0 -24 -3 -25 -63
-27 -65 -2 -81 8 -69 41 5 11 22 14 69 13 60 -2 63 -3 63 -27z m75 0 c0 -27
-3 -30 -30 -30 -27 0 -30 3 -30 30 0 27 3 30 30 30 27 0 30 -3 30 -30z m70 0
c0 -27 -3 -30 -30 -30 -27 0 -30 3 -30 30 0 27 3 30 30 30 27 0 30 -3 30 -30z
m70 0 c0 -27 -3 -30 -30 -30 -27 0 -30 3 -30 30 0 27 3 30 30 30 27 0 30 -3
30 -30z m70 0 c0 -27 -3 -30 -30 -30 -27 0 -30 3 -30 30 0 27 3 30 30 30 27 0
30 -3 30 -30z m102 8 c-2 -10 -8 -16 -12 -13 -4 3 -10 -2 -14 -10 -7 -19 -55
-19 -62 0 -12 31 4 45 49 43 37 -2 43 -5 39 -20z m-962 -78 c0 -27 -3 -30 -30
-30 -27 0 -30 3 -30 30 0 27 3 30 30 30 27 0 30 -3 30 -30z m148 3 c-3 -27 -5
-28 -68 -28 -63 0 -65 1 -68 28 l-3 27 71 0 71 0 -3 -27z m72 -3 c0 -27 -3
-30 -30 -30 -27 0 -30 3 -30 30 0 27 3 30 30 30 27 0 30 -3 30 -30z m70 0 c0
-27 -3 -30 -30 -30 -27 0 -30 3 -30 30 0 27 3 30 30 30 27 0 30 -3 30 -30z
m70 0 c0 -27 -3 -30 -30 -30 -27 0 -30 3 -30 30 0 27 3 30 30 30 27 0 30 -3
30 -30z m70 0 c0 -27 -3 -30 -30 -30 -27 0 -30 3 -30 30 0 27 3 30 30 30 27 0
30 -3 30 -30z m148 3 c-3 -27 -5 -28 -68 -28 -63 0 -65 1 -68 28 l-3 27 71 0
71 0 -3 -27z m72 -3 c0 -27 -3 -30 -30 -30 -27 0 -30 3 -30 30 0 27 3 30 30
30 27 0 30 -3 30 -30z m70 0 c0 -27 -3 -30 -30 -30 -27 0 -30 3 -30 30 0 27 3
30 30 30 27 0 30 -3 30 -30z m70 0 c0 -27 -3 -30 -30 -30 -27 0 -30 3 -30 30
0 27 3 30 30 30 27 0 30 -3 30 -30z m70 0 c0 -27 -3 -30 -30 -30 -27 0 -30 3
-30 30 0 27 3 30 30 30 27 0 30 -3 30 -30z m68 -1 c-14 -40 -51 -38 -56 4 -3
25 -1 27 32 27 35 0 35 0 24 -31z m-929 -96 l0 -58 -24 50 c-30 63 -30 65 0
65 24 0 25 -3 24 -57z m149 -38 l0 -95 -64 0 c-44 0 -64 4 -65 13 -1 6 -3 49
-5 95 l-3 82 68 0 69 0 0 -95z m70 0 l0 -95 -29 0 -29 0 0 95 0 95 29 0 29 0
0 -95z m70 0 l0 -95 -28 0 -28 0 0 95 0 95 28 0 28 0 0 -95z m70 0 l0 -95 -28
0 -28 0 0 95 0 95 28 0 28 0 0 -95z m72 0 l0 -95 -29 0 -29 0 0 95 0 95 29 0
29 0 0 -95z m148 0 l0 -95 -68 0 -67 0 0 95 0 95 67 0 68 0 0 -95z m70 0 l0
-95 -29 0 -29 0 0 95 0 95 29 0 29 0 0 -95z m70 0 l0 -95 -28 0 -28 0 0 95 0
95 28 0 28 0 0 -95z m70 0 l0 -95 -28 0 -28 0 0 95 0 95 28 0 28 0 0 -95z m71
38 c-1 -68 -19 -127 -42 -131 -13 -3 -15 11 -15 92 l0 96 29 0 c29 0 29 0 28
-57z m40 27 c-12 -34 -29 -31 -29 6 0 17 5 24 19 24 18 0 19 -3 10 -30z m-754
-200 c0 -23 -4 -25 -47 -26 -27 0 -48 2 -48 5 0 3 -3 16 -6 27 -5 20 -2 22 48
20 50 -1 53 -3 53 -26z m75 0 c0 -27 -3 -30 -30 -30 -27 0 -30 3 -30 30 0 27
3 30 30 30 27 0 30 -3 30 -30z m70 0 c0 -27 -3 -30 -30 -30 -27 0 -30 3 -30
30 0 27 3 30 30 30 27 0 30 -3 30 -30z m70 0 c0 -27 -3 -30 -30 -30 -27 0 -30
3 -30 30 0 27 3 30 30 30 27 0 30 -3 30 -30z m70 0 c0 -27 -3 -30 -30 -30 -27
0 -30 3 -30 30 0 27 3 30 30 30 27 0 30 -3 30 -30z m145 0 c0 -24 -3 -25 -63
-27 -65 -2 -81 8 -69 41 5 11 22 14 69 13 60 -2 63 -3 63 -27z m75 0 c0 -27
-3 -30 -30 -30 -27 0 -30 3 -30 30 0 27 3 30 30 30 27 0 30 -3 30 -30z m70 0
c0 -27 -3 -30 -30 -30 -27 0 -30 3 -30 30 0 27 3 30 30 30 27 0 30 -3 30 -30z
m70 0 c0 -27 -3 -30 -30 -30 -27 0 -30 3 -30 30 0 27 3 30 30 30 27 0 30 -3
30 -30z m30 21 c0 -6 -4 -13 -10 -16 -5 -3 -10 1 -10 9 0 9 5 16 10 16 6 0 10
-4 10 -9z m-673 -146 c0 -47 -4 -85 -7 -85 -7 0 -44 86 -45 102 0 3 -3 10 -7
14 -5 4 -8 15 -8 25 0 9 -6 20 -12 22 -7 3 8 6 34 6 l46 1 -1 -85z m71 -45 c0
-129 0 -130 -23 -130 -31 0 -35 15 -35 146 l0 114 29 0 29 0 0 -130z m70 0 l0
-130 -28 0 -28 0 0 130 0 130 28 0 28 0 0 -130z m70 0 l0 -130 -28 0 -28 0 0
130 0 130 28 0 28 0 0 -130z m72 0 l0 -130 -29 0 -29 0 0 130 0 130 29 0 29 0
0 -130z m147 0 l0 -130 -67 0 -67 0 0 130 0 130 67 0 67 0 0 -130z m71 0 l0
-130 -29 0 -29 0 0 130 0 130 29 0 29 0 0 -130z m70 43 c0 -86 -24 -173 -47
-173 -5 0 -9 55 -9 130 l0 130 28 0 29 0 -1 -87z m72 80 c-1 -5 -9 -26 -20
-48 -11 -22 -19 -46 -20 -52 0 -7 -4 -13 -9 -13 -5 0 -10 27 -10 60 0 60 0 60
30 60 16 0 29 -3 29 -7z m-570 -293 c0 -37 -13 -39 -28 -5 -16 34 -15 35 8 35
16 0 20 -7 20 -30z m70 0 c0 -27 -3 -30 -30 -30 -27 0 -30 3 -30 30 0 27 3 30
30 30 27 0 30 -3 30 -30z m70 0 c0 -27 -3 -30 -30 -30 -27 0 -30 3 -30 30 0
27 3 30 30 30 27 0 30 -3 30 -30z m70 0 c0 -27 -3 -30 -30 -30 -27 0 -30 3
-30 30 0 27 3 30 30 30 27 0 30 -3 30 -30z m145 0 c0 -24 -3 -25 -63 -27 -65
-2 -81 8 -69 41 5 11 22 14 69 13 60 -2 63 -3 63 -27z m75 0 c0 -27 -3 -30
-30 -30 -27 0 -30 3 -30 30 0 27 3 30 30 30 27 0 30 -3 30 -30z m17 8 c-3 -8
-6 -5 -6 6 -1 11 2 17 5 13 3 -3 4 -12 1 -19z m-379 -133 c0 -47 -4 -82 -9
-79 -5 3 -9 11 -9 17 0 7 -9 30 -20 52 -11 22 -20 52 -20 67 0 24 4 28 29 28
l30 0 -1 -85z m70 -10 l0 -95 -28 0 -28 0 0 95 0 95 28 0 28 0 0 -95z m72 0
l0 -95 -29 0 -29 0 0 95 0 95 29 0 29 0 0 -95z m146 8 c-2 -49 -4 -91 -5 -95
0 -5 -30 -8 -65 -8 l-63 0 0 95 0 95 68 0 68 0 -3 -87z m57 55 c-9 -18 -18
-38 -19 -45 -1 -6 -7 -19 -13 -30 -8 -14 -10 -5 -11 45 l0 62 30 0 31 0 -18
-32z m-273 -198 c0 -23 -4 -30 -20 -30 -18 0 -40 26 -40 49 0 6 14 11 30 11
27 0 30 -3 30 -30z m70 0 c0 -27 -3 -30 -30 -30 -27 0 -30 3 -30 30 0 27 3 30
30 30 27 0 30 -3 30 -30z m130 24 c0 -2 -5 -15 -12 -29 -10 -22 -17 -25 -60
-25 -44 0 -48 2 -48 23 0 13 3 26 6 30 6 5 114 7 114 1z m-200 -96 c-1 -31 -1
-32 -15 -14 -19 25 -19 46 0 46 10 0 15 -10 15 -32z m70 2 c0 -27 -3 -30 -30
-30 -27 0 -30 3 -30 30 0 27 3 30 30 30 27 0 30 -3 30 -30z m100 18 c0 -5 -4
-8 -9 -8 -5 0 -11 -9 -14 -20 -6 -24 -55 -28 -63 -5 -12 31 4 46 46 43 22 -2
40 -6 40 -10z m-101 -140 l0 -83 -21 45 c-11 25 -24 53 -29 62 -5 10 -9 27 -9
38 0 16 7 20 30 20 l30 0 -1 -82z m69 74 c-1 -4 -11 -28 -22 -55 -10 -26 -22
-47 -26 -47 -4 0 -8 25 -8 55 0 55 0 55 30 55 16 0 28 -3 26 -8z"/>
<path d="M3220 2130 c0 -5 5 -10 10 -10 6 0 10 5 10 10 0 6 -4 10 -10 10 -5 0
-10 -4 -10 -10z"/>
<path d="M3150 1790 c0 -5 5 -10 10 -10 6 0 10 5 10 10 0 6 -4 10 -10 10 -5 0
-10 -4 -10 -10z"/>
<path d="M3150 1720 c0 -5 5 -10 10 -10 6 0 10 5 10 10 0 6 -4 10 -10 10 -5 0
-10 -4 -10 -10z"/>
<path d="M3580 1790 c0 -5 5 -10 10 -10 6 0 10 5 10 10 0 6 -4 10 -10 10 -5 0
-10 -4 -10 -10z"/>
<path d="M3580 1720 c0 -5 5 -10 10 -10 6 0 10 5 10 10 0 6 -4 10 -10 10 -5 0
-10 -4 -10 -10z"/>
<path d="M4010 1790 c0 -5 5 -10 10 -10 6 0 10 5 10 10 0 6 -4 10 -10 10 -5 0
-10 -4 -10 -10z"/>
<path d="M4010 1720 c0 -5 5 -10 10 -10 6 0 10 5 10 10 0 6 -4 10 -10 10 -5 0
-10 -4 -10 -10z"/>
<path d="M3150 1450 c0 -5 5 -10 10 -10 6 0 10 5 10 10 0 6 -4 10 -10 10 -5 0
-10 -4 -10 -10z"/>
<path d="M3150 1380 c0 -5 5 -10 10 -10 6 0 10 5 10 10 0 6 -4 10 -10 10 -5 0
-10 -4 -10 -10z"/>
<path d="M3580 1450 c0 -5 5 -10 10 -10 6 0 10 5 10 10 0 6 -4 10 -10 10 -5 0
-10 -4 -10 -10z"/>
<path d="M3580 1380 c0 -5 5 -10 10 -10 6 0 10 5 10 10 0 6 -4 10 -10 10 -5 0
-10 -4 -10 -10z"/>
<path d="M3580 1180 c0 -5 5 -10 10 -10 6 0 10 5 10 10 0 6 -4 10 -10 10 -5 0
-10 -4 -10 -10z"/>
<path d="M3580 1110 c0 -5 5 -10 10 -10 6 0 10 5 10 10 0 6 -4 10 -10 10 -5 0
-10 -4 -10 -10z"/>
<path d="M3580 1040 c0 -5 5 -10 10 -10 6 0 10 5 10 10 0 6 -4 10 -10 10 -5 0
-10 -4 -10 -10z"/>
<path d="M3580 840 c0 -5 5 -10 10 -10 6 0 10 5 10 10 0 6 -4 10 -10 10 -5 0
-10 -4 -10 -10z"/>
<path d="M3580 770 c0 -5 5 -10 10 -10 6 0 10 5 10 10 0 6 -4 10 -10 10 -5 0
-10 -4 -10 -10z"/>
</g>
</svg>
